// Jest Snapshot v1, https://goo.gl/fbAQLP

exports[`Unit test for the RubricCategoryDetail component. Should render RubricCategoryDetail component 1`] = `
<div>
  <div
    class="Toastify"
  />
  <div
    class="flex flex-col lg:flex-row pb-8 max-w-catalog mx-auto"
  >
    <div
      class="lg:sticky lg:top-66px w-full lg:w-1/3 xl:w-1/4 h-full p-4"
    >
      <div
        class="block lg:hidden"
      >
        <div
          class="bg-white pb-3 lg:py-4 whitespace-nowrap text-ellipsis overflow-hidden"
        >
          <a
            class="inline text-dial-blue h5"
            href="/"
          >
            Home
          </a>
          <div
            class="inline h5"
          >
             &gt; 
            <a
              class="text-dial-gray-dark"
              href="/"
            />
          </div>
        </div>
      </div>
      <div
        class="h-12 w-full inline-flex gap-3 items-center"
      >
        <button
          class="delete-button gap-x-1.5"
          data-testid="delete-button"
          type="button"
        >
          <svg
            class="text-sm"
            fill="currentColor"
            height="1em"
            stroke="currentColor"
            stroke-width="0"
            viewBox="0 0 16 16"
            width="1em"
            xmlns="http://www.w3.org/2000/svg"
          >
            <path
              d="M5.5 5.5A.5.5 0 0 1 6 6v6a.5.5 0 0 1-1 0V6a.5.5 0 0 1 .5-.5zm2.5 0a.5.5 0 0 1 .5.5v6a.5.5 0 0 1-1 0V6a.5.5 0 0 1 .5-.5zm3 .5a.5.5 0 0 0-1 0v6a.5.5 0 0 0 1 0V6z"
            />
            <path
              d="M14.5 3a1 1 0 0 1-1 1H13v9a2 2 0 0 1-2 2H5a2 2 0 0 1-2-2V4h-.5a1 1 0 0 1-1-1V2a1 1 0 0 1 1-1H6a1 1 0 0 1 1-1h2a1 1 0 0 1 1 1h3.5a1 1 0 0 1 1 1v1zM4.118 4 4 4.059V13a1 1 0 0 0 1 1h6a1 1 0 0 0 1-1V4.059L11.882 4H4.118zM2.5 3V2h11v1h-11z"
              fill-rule="evenodd"
            />
          </svg>
          <span
            class="text-sm"
          >
            Delete
          </span>
        </button>
        <a
          class="inline-flex items-center gap-x-1.5 bg-dial-blue px-2 py-1 rounded-md text-white"
          data-testid="edit-link"
          href="/rubric_categories/rc_name/edit"
        >
          <img
            alt="Edit"
            height="12px"
            src="/icons/edit.svg"
            width="12px"
          />
          <span
            class="text-sm"
          >
            Edit
          </span>
        </a>
      </div>
      <div
        class="bg-white border-2 border-dial-gray lg:mr-6 shadow-lg"
      >
        <div
          class="flex flex-col p-4 text-dial-gray-dark"
        >
          <div
            class="font-semibold text-lg"
          >
            RC name
          </div>
          <hr
            class="my-2"
          />
          <div
            class="text-sm"
          >
            <span
              class="font-semibold"
            >
              Weight
            </span>
            : 1
          </div>
        </div>
      </div>
    </div>
    <div
      class="w-full lg:w-2/3 xl:w-3/4"
    >
      <div
        class="px-4"
      >
        <div
          class="hidden lg:block"
        >
          <div
            class="bg-white pb-3 lg:py-4 whitespace-nowrap text-ellipsis overflow-hidden"
          >
            <a
              class="inline text-dial-blue h5"
              href="/"
            >
              Home
            </a>
            <div
              class="inline h5"
            >
               &gt; 
              <a
                class="text-dial-gray-dark"
                href="/"
              />
            </div>
          </div>
        </div>
        <div
          class="card-title mb-3 text-dial-gray-dark"
        >
          Description
        </div>
        <div
          class="fr-view text-dial-gray-dark"
          data-testid="description"
        >
          RC description
        </div>
      </div>
    </div>
  </div>
</div>
`;
